{
  "name": "Kernel Indicator",
  "uuid": "kernel-indicator@pvizc.gitlab.com",
  "description": "Display the kernel version in the top bar",
  "shell-version": [ "45", "46", "47" ],
  "url": "https://gitlab.com/pvizc/gnome-shell-extension-kernel-indicator"
}
